{
   "flight":{
      "to":"DTW",
      "from":"SFO",
      "total_fare":"$478.20",
      "base_fare":"$402.78",
      "taxes":"$75.42",
      "latest_ticketing_time":null,
      "depart_flight_segments":[
         {
            "duration":"207",
            "flight_num":"2433",
            "to":"DFW",
            "from":"SFO",
            "leg":"0",
            "seg":0,
            "takeoff":"2016-03-26T06:38:00.000-07:00",
            "land":"2016-03-26T12:05:00.000-05:00",
            "key":"7EwKuHtRR0K5sz9urrWGIQ==",
            "booking_code":null,
            "airline":"AA",
            "booking_class":"O"
         },
         {
            "duration":"153",
            "flight_num":"301",
            "to":"DTW",
            "from":"DFW",
            "leg":"0",
            "seg":1,
            "takeoff":"2016-03-26T13:00:00.000-05:00",
            "land":"2016-03-26T16:33:00.000-04:00",
            "key":"kZDky3b8TxmqvroZfDPOgQ==",
            "booking_code":null,
            "airline":"AA",
            "booking_class":"O"
         }
      ],
      "return_flight_segments":[
         {
            "duration":"198",
            "flight_num":"1241",
            "to":"DFW",
            "from":"DTW",
            "leg":"1",
            "seg":0,
            "takeoff":"2016-03-31T05:42:00.000-04:00",
            "land":"2016-03-31T08:00:00.000-05:00",
            "key":"9dtW2XRsT6aSH\/6BkzO8qA==",
            "booking_code":null,
            "airline":"AA",
            "booking_class":"N"
         },
         {
            "duration":"232",
            "flight_num":"259",
            "to":"SFO",
            "from":"DFW",
            "leg":"1",
            "seg":1,
            "takeoff":"2016-03-31T11:05:00.000-05:00",
            "land":"2016-03-31T12:57:00.000-07:00",
            "key":"p2PetdM3TnKA9luFr0KDXg==",
            "booking_code":null,
            "airline":"AA",
            "booking_class":"N"
         }
      ],
      "departure_datetime":"2016-03-26T06:38:00.000-07:00",
      "return_datetime":"2016-03-31T05:42:00.000-04:00",
      "key":null,
      "depart_num_connections":1,
      "return_num_connections":1,
      "segment_keys":[
         "7EwKuHtRR0K5sz9urrWGIQ==",
         "kZDky3b8TxmqvroZfDPOgQ==",
         "9dtW2XRsT6aSH\/6BkzO8qA==",
         "p2PetdM3TnKA9luFr0KDXg=="
      ]
   },
   "Passengers":[
      {
         "FG_ID":null,
         "FirstName":"John",
         "MiddleName":null,
         "LastName":"Smith",
         "DOB":"1971-03-11",
         "AreaCode":"314",
         "CountryCode":"1",
         "FullPhoneNumber":null,
         "Number":"3121212",
         "email":null,
         "Gender":"M",
         "UAPI_ProfileID":null,
         "UAPI_FOPID":null,
         "UAPI_ParentProfileID":null,
         "Passenger_Type":null,
         "Age":null,
         "Passenger_Key":"56e617f4d0736",
         "loyalty_cards":[

         ],
         "requested_supplier_array":[

         ],
         "requested_booking_type":null,
         "Email":"john.test@gmail.com",
         "Phone":"+1-314-3121212"
      }
   ],
   "RecordLocators":{
      "UniversalRecordLocator":"KB584Y",
      "TicketDate":"2016-03-14T11:59:00.000-07:00",
      "ProviderRecordLocator":"ZGXM4I",
      "AirReservationLocator":"KB83BC",
      "CreateDate":"2016-03-14T01:46:27.627+00:00"
   },
   "status":true,
   "statustext":"  failed to Sell Reason: ",
   "PricingKey":"IQlnB0o5RtW2kwvk1EddWA==",
   "ordernumber":500001062
}